{

"images": [
    "ressources/img/chauvesourie/chauvesourie.png"
],

"framerate": 10,
"frames": [
    [1, 1, 100, 103, 0, -13, -25],
    [103, 1, 98, 87, 0, -23, -41],
    [203, 1, 96, 75, 0, -15, -53],
    [301, 1, 92, 89, 0, -15, -39],
    [203, 78, 74, 85, 0, -27, -43],
    [103, 90, 72, 89, 0, -27, -39],
    [1, 106, 62, 91, 0, -31, -37],
    [395, 1, 60, 85, 0, -33, -43]
],

"animations": {
    "Anim_char12_idle": { "frames": [6, 5, 0, 3, 2, 4] },
    "Anim_char12_attack": { "frames": [1] },
    "Anim_char12_gethit": { "frames": [7] }
},

"texturepacker": [
        "SmartUpdateHash: $TexturePacker:SmartUpdate:3743c30b56eedc1ad9d83aeeef88e2a2:1e89588da4fd4e5e08001ca3291b294b:760b42454d4d8a8778b7749ec58171f1$",
        "Created with TexturePacker (https://www.codeandweb.com/texturepacker) for EaselJS"
]

}
