{

"images": [
    "ressources/img/dragon/dragon.png"
],

"framerate": 10,
"frames": [
    [1, 1, 109, 51, 0, -19, -77],
    [112, 1, 108, 55, 0, -9, -73],
    [1, 54, 104, 53, 0, -13, -75],
    [107, 58, 104, 53, 0, -13, -75],
    [1, 109, 100, 51, 0, -17, -77],
    [1, 162, 100, 51, 0, -17, -77],
    [103, 113, 100, 51, 0, -17, -77],
    [103, 166, 98, 47, 0, -13, -81]
],

"animations": {
    "Anim_char12_attack": { "frames": [0] },
    "Anim_char12_idle": { "frames": [4, 2, 1, 3, 5, 6] },
    "Anim_char12_gethit": { "frames": [7] }
},

"texturepacker": [
        "SmartUpdateHash: $TexturePacker:SmartUpdate:340bd9cdca92a545ec4d7d8b592437f2:71bf8a6d47e49dcf42814ce77bb78c6c:581e962efa07d1f36d42214f5f5ec489$",
        "Created with TexturePacker (https://www.codeandweb.com/texturepacker) for EaselJS"
]

}
