{

"images": [
    "ressources/img/vie/vie.png"
],

"framerate": 10,
"frames": [
    [1, 1, 20, 24, 0, -7, -1],
    [1, 27, 20, 24, 0, -7, -3],
    [1, 53, 20, 24, 0, -7, -5],
    [1, 79, 20, 24, 0, -7, -7],
    [23, 1, 20, 24, 0, -7, -5],
    [45, 1, 20, 24, 0, -7, -7],
    [67, 1, 20, 24, 0, -7, -5],
    [89, 1, 20, 24, 0, -7, -3],
    [23, 27, 20, 24, 0, -7, -1],
    [23, 53, 20, 24, 0, -7, -3]
],

"animations": {
    "Fx_effect18": { "frames": [0, 1, 2, 3, 4] },
    "Fx_effect19": { "frames": [5, 6, 7, 8, 9] }
},

"texturepacker": [
        "SmartUpdateHash: $TexturePacker:SmartUpdate:b96150c422e2fa028bbeb5a0fd91a18a:739d90e71ad54a4bf0d91d7f32e1862f:9c2422805e185b23648fef1a9a2fd7a2$",
        "Created with TexturePacker (https://www.codeandweb.com/texturepacker) for EaselJS"
]

}
